personnel_id,amount_paid,time,payment_method_id,cancel,cancel_action_id,cancel_description,cancelled_by,cancelled_date,is_new,reason
Alice,10000,15/7/2020 13:32:39,9,1,2,not yet approve,2,15/7/2020 13:32:39,0,
Alice,11000,15/7/2020 14:05:53,2,0,,,,,0,
Alice,5500,16/7/2020 11:19:23,2,1,2,not paid,2,16/7/2020 11:19:23,0,
Alice,5000,16/7/2020 12:49:13,2,0,,,,,0,
Alice,8000,16/7/2020 15:22:41,9,0,,,,,0,
Alice,10000,17/7/2020 11:46:48,9,0,,,,,0,
Alice,56500,17/7/2020 12:36:57,9,0,,,,,0,
Alice,13000,17/7/2020 16:01:54,9,1,2,WRONG ENTRY,2,17/7/2020 16:01:54,0,
Alice,21500,17/7/2020 15:52:20,9,0,,,,,0,
Alice,4500,17/7/2020 15:56:18,9,0,,,,,0,
Alice,12000,17/7/2020 16:00:48,7,0,,,,,0,
Alice,1000,17/7/2020 16:05:58,9,0,,,,,0,
Alice,6500,17/7/2020 16:12:59,9,0,,,,,0,
Alice,1000,17/7/2020 17:03:57,2,0,,,,,0,
Alice,21000,17/7/2020 17:24:03,9,0,,,,,0,
Alice,27000,18/7/2020 11:42:23,8,1,2,wrong no,2,18/7/2020 11:42:23,0,
Alice,27000,18/7/2020 12:21:26,6,1,1,fg,1,18/7/2020 12:21:26,0,
Alice,27000,18/7/2020 12:22:57,6,0,,,,,0,
Alice,94000,18/7/2020 13:15:31,9,0,,,,,0,
Alice,50000,18/7/2020 13:27:45,1,0,,,,,0,
Alice,6500,18/7/2020 13:51:31,9,0,,,,,0,
Alice,21000,18/7/2020 13:57:08,9,0,,,,,0,
Alice,7500,18/7/2020 14:04:38,9,0,,,,,0,
Alice,213000,20/7/2020 12:58:29,9,0,,,,,0,
Alice,40000,20/7/2020 14:34:12,2,1,1,wrong bill,1,20/7/2020 14:34:12,0,
Alice,40000,20/7/2020 14:35:03,2,0,,,,,0,
Alice,7000,20/7/2020 16:32:41,9,0,,,,,0,
Alice,5500,20/7/2020 16:36:51,9,0,,,,,0,
Alice,213000,20/7/2020 17:08:37,9,1,2,wrong,2,20/7/2020 17:08:37,0,
Alice,63000,20/7/2020 17:08:19,9,0,,,,,0,
Alice,1000,20/7/2020 17:23:21,2,0,,,,,0,
Alice,5500,21/7/2020 16:23:46,9,0,,,,,0,
Alice,25000,21/7/2020 16:24:43,2,0,,,,,0,
Alice,13000,22/7/2020 17:21:26,9,0,,,,,0,
Alice,14000,22/7/2020 17:23:58,9,0,,,,,0,
Alice,16000,22/7/2020 17:29:05,9,0,,,,,0,
Alice,7000,22/7/2020 17:32:44,9,0,,,,,0,
Alice,19000,22/7/2020 17:40:01,9,0,,,,,0,
Alice,5000,24/7/2020 13:11:02,2,0,,,,,0,
Alice,35000,24/7/2020 13:19:33,9,0,,,,,0,
Alice,30000,24/7/2020 13:40:09,9,0,,,,,0,
Alice,13500,24/7/2020 16:12:07,2,0,,,,,0,
Alice,13500,24/7/2020 16:18:52,2,1,2,double entry,2,24/7/2020 16:18:52,0,
Alice,18000,24/7/2020 16:18:35,9,0,,,,,0,
Alice,19500,24/7/2020 16:29:34,9,0,,,,,0,
Alice,25000,24/7/2020 16:31:48,9,0,,,,,0,
Alice,21000,25/7/2020 14:41:16,9,0,,,,,0,
Alice,21000,25/7/2020 14:42:58,9,0,,,,,0,
Alice,11000,25/7/2020 15:03:39,2,0,,,,,0,
Alice,4500,25/7/2020 15:04:43,2,1,2,DOUBLE ENTRY,2,25/7/2020 15:04:43,0,
Alice,4500,25/7/2020 15:04:29,2,0,,,,,0,
Alice,10000,25/7/2020 15:05:42,9,0,,,,,0,
Alice,1500,27/7/2020 15:36:52,2,0,,,,,0,
Alice,10000,28/7/2020 16:27:08,2,1,2,double entry,2,28/7/2020 16:27:08,0,
Alice,10000,28/7/2020 16:26:42,2,0,,,,,0,
Alice,1000,28/7/2020 16:31:58,2,0,,,,,0,
Alice,1000,28/7/2020 16:45:00,2,0,,,,,0,
Alice,5000,28/7/2020 16:54:02,2,0,,,,,0,
Alice,12000,29/7/2020 13:33:55,2,0,,,,,0,
Alice,20000,30/7/2020 17:04:00,2,0,,,,,0,
Alice,16500,30/7/2020 17:06:53,2,0,,,,,0,
Alice,1000,1/8/2020 14:26,2,0,,,,,0,
Alice,6700,1/8/2020 14:46,2,0,,,,,0,
Alice,6500,1/8/2020 14:47,2,0,,,,,0,
Alice,6500,1/8/2020 14:50,2,0,,,,,0,
Alice,5000,3/8/2020 16:25,2,0,,,,,0,
Alice,20000,3/8/2020 17:57,2,0,,,,,0,
Alice,10000,4/8/2020 17:14,2,0,,,,,0,
Alice,20000,4/8/2020 17:37,6,0,,,,,0,
Alice,1000,4/8/2020 17:43,2,0,,,,,0,
Alice,6000,5/8/2020 11:37,2,0,,,,,0,
Alice,6500,5/8/2020 15:42,2,0,,,,,0,
Alice,6000,5/8/2020 17:51,2,0,,,,,0,
Alice,6500,5/8/2020 17:54,2,0,,,,,0,
Alice,1000,5/8/2020 18:08,6,0,,,,,0,
Alice,6500,6/8/2020 15:10,6,0,,,,,0,
Alice,11000,6/8/2020 17:02,7,0,,,,,0,billed the day before for a two fillings
Alice,13000,7/8/2020 13:54,2,0,,,,,0,
Alice,14500,7/8/2020 16:51,2,0,,,,,0,
Alice,4500,7/8/2020 16:55,5,1,2,wrong entry,2,7/8/2020 16:55,0,
Alice,5500,7/8/2020 16:56,2,0,,,,,0,
Alice,75000,8/8/2020 13:06,2,0,,,,,0,
Alice,15000,10/8/2020 16:35,2,0,,,,,0,
Alice,3000,11/8/2020 16:25,2,0,,,,,0,
Alice,6500,12/8/2020 12:22,2,0,,,,,0,
Alice,8500,12/8/2020 16:38,2,0,,,,,0,
Alice,6000,12/8/2020 17:21,2,1,2,wrong entry,2,12/8/2020 17:21,0,
Alice,6000,12/8/2020 17:22,5,0,,,,,0,
Alice,6500,17/8/2020 17:04:51,2,0,,,,,0,
Alice,15500,17/8/2020 17:06:41,8,0,,,,,0,
Alice,6000,18/8/2020 16:43:58,2,0,,,,,0,
Alice,3500,19/8/2020 17:12:34,2,0,,,,,0,
Alice,5500,19/8/2020 17:14:06,2,0,,,,,0,
Alice,1000,20/8/2020 17:09:10,2,0,,,,,0,
Alice,3500,20/8/2020 17:18:03,2,0,,,,,0,
Alice,105000,21/8/2020 13:21:27,2,0,,,,,0,
Alice,105000,21/8/2020 13:35:32,2,1,2,double entryy,2,21/8/2020 13:35:32,0,
Alice,8000,21/8/2020 13:56:25,2,0,,,,,0,
Alice,20000,21/8/2020 17:52:42,8,0,,,,,0,
Alice,2000,21/8/2020 18:00:47,8,0,,,,,0,
Alice,5000,21/8/2020 18:22:09,2,0,,,,,0,
Alice,14400,24/8/2020 14:40:53,2,0,,,,,0,
Alice,1000,25/8/2020 17:42:55,2,0,,,,,0,
Alice,1400,25/8/2020 17:46:38,8,1,2,wrong,2,25/8/2020 17:46:38,0,
Alice,1500,25/8/2020 17:46:26,7,0,,,,,0,
Alice,8000,25/8/2020 18:00:28,8,0,,,,,0,
Alice,3000,26/8/2020 17:32:40,2,0,,,,,0,
Alice,5000,26/8/2020 18:44:13,2,0,,,,,0,
Alice,30000,27/8/2020 13:05:24,1,0,,,,,0,
Alice,17000,27/8/2020 13:05:56,5,0,,,,,0,
Alice,10000,27/8/2020 16:20:48,8,0,,,,,0,
Alice,1500,27/8/2020 16:56:46,2,0,,,,,0,
Alice,20000,28/8/2020 14:06:03,8,0,,,,,0,
Alice,5500,28/8/2020 14:44:34,8,0,,,,,0,
Alice,7000,28/8/2020 15:51:58,5,0,,,,,0,
Alice,5000,29/8/2020 13:14:57,5,0,,,,,0,
Alice,69000,31/8/2020 14:11:26,5,0,,,,,0,
Alice,10000,31/8/2020 14:46:31,2,0,,,,,0,
Alice,6000,31/8/2020 17:25:26,2,0,,,,,0,
Alice,4000,1/9/2020 17:31,8,0,,,,,0,
Alice,208000,1/9/2020 17:35,1,0,,,,,0,
Alice,1000,1/9/2020 17:39,5,0,,,,,0,
Alice,3000,1/9/2020 17:43,1,0,,,,,0,
Alice,39000,1/9/2020 17:45,1,0,,,,,0,
Alice,6500,2/9/2020 17:10,2,0,,,,,0,
Alice,79720,3/9/2020 16:59,2,1,2,wrong,2,3/9/2020 16:59,0,
Alice,79720,3/9/2020 17:03,5,0,,,,,0,
Alice,79720,3/9/2020 17:05,5,0,,,,,0,
Alice,4500,4/9/2020 16:26,2,0,,,,,0,
Alice,5000,7/9/2020 11:33,2,0,,,,,0,
Alice,11500,7/9/2020 17:16,8,0,,,,,0,
Alice,7000,8/9/2020 13:59,2,0,,,,,0,
Alice,6500,8/9/2020 14:48,2,0,,,,,0,
Alice,5000,8/9/2020 15:43,5,0,,,,,0,
Alice,5000,10/9/2020 17:14,2,1,1,test with allan,1,10/9/2020 17:14,0,
Alice,26500,11/9/2020 17:38,2,1,2,wrong mode,2,11/9/2020 17:38,0,
Alice,5500,11/9/2020 17:08,8,0,,,,,0,
Alice,1300,11/9/2020 17:37,8,0,,,,,0,
Alice,26500,11/9/2020 17:39,8,0,,,,,0,
Alice,15000,12/9/2020 12:39,2,0,,,,,0,
Alice,7500,12/9/2020 13:34,5,0,,,,,0,
Alice,40000,14/9/2020 13:19:03,2,0,,,,,0,
Alice,12000,14/9/2020 17:07:03,2,0,,,,,0,
Alice,40000,14/9/2020 17:33:59,2,0,,,,,0,
Alice,1500,14/9/2020 18:04:41,5,0,,,,,0,
Alice,22000,15/9/2020 11:47:19,2,0,,,,,0,
Alice,6500,15/9/2020 12:54:14,2,0,,,,,0,
Alice,20000,15/9/2020 14:03:11,2,0,,,,,0,
Alice,15000,15/9/2020 16:11:55,8,0,,,,,0,
Alice,8000,15/9/2020 17:48:08,5,0,,,,,0,
Alice,5500,16/9/2020 11:35:16,5,0,,,,,0,
Alice,5500,16/9/2020 12:47:42,5,1,1,double,1,16/9/2020 12:47:42,0,
Alice,2000,16/9/2020 17:28:10,2,0,,,,,0,
Alice,1000,17/9/2020 16:34:25,2,0,,,,,0,
Alice,1000,17/9/2020 16:36:10,2,0,,,,,0,
Alice,25500,17/9/2020 17:16:05,2,0,,,,,0,
Alice,1000,17/9/2020 17:20:26,8,0,,,,,0,
Alice,6500,17/9/2020 17:28:03,8,0,,,,,0,
Alice,40000,17/9/2020 17:53:35,8,0,,,,,0,
Alice,30000,18/9/2020 17:28:46,5,0,,,,,0,
Alice,10000,18/9/2020 17:47:04,8,0,,,,,0,
Alice,11500,21/9/2020 14:50:08,2,0,,,,,0,
Alice,1500,21/9/2020 15:20:04,2,0,,,,,0,
Alice,5500,21/9/2020 15:30:06,0,0,,,,,0,
Alice,11500,21/9/2020 16:19:05,2,0,,,,,0,
Alice,11500,21/9/2020 16:46:16,2,0,,,,,0,
Alice,23000,23/9/2020 11:16:27,5,0,,,,,0,
Alice,6500,23/9/2020 11:22:08,5,0,,,,,0,
Alice,6500,24/9/2020 17:27:03,2,0,,,,,0,
Alice,1000,25/9/2020 11:29:32,7,0,,,,,0,patient begged
Alice,41000,25/9/2020 15:07:02,2,0,,,,,0,
Alice,20000,26/9/2020 11:02:56,2,0,,,,,0,
Alice,19500,26/9/2020 12:25:46,2,1,2,wrong entry,2,26/9/2020 12:25:46,0,
Alice,19500,26/9/2020 12:26:46,5,0,,,,,0,
Alice,3500,26/9/2020 12:32:51,5,0,,,,,0,
Alice,10000,26/9/2020 13:19:31,8,0,,,,,0,
Alice,50000,28/9/2020 17:29:37,5,0,,,,,0,
Alice,12000,29/9/2020 11:11:28,2,0,,,,,0,
Alice,2700,30/9/2020 16:22:45,2,0,,,,,0,
Alice,21000,30/9/2020 17:10:35,2,0,,,,,0,
Alice,3500,2/10/2020 11:46,8,0,,,,,0,
Alice,5000,2/10/2020 13:50,5,0,,,,,0,
Alice,62000,2/10/2020 17:53,7,0,,,,,0,
Alice,0,3/10/2020 13:38,2,0,,,,,0,
Alice,10000,5/10/2020 12:18,2,0,,,,,0,
Alice,5300,5/10/2020 13:48,2,0,,,,,0,
Alice,24700,5/10/2020 13:48,5,0,,,,,0,
Alice,24000,5/10/2020 13:57,8,0,,,,,0,
Alice,3500,5/10/2020 13:59,8,0,,,,,0,
Alice,25000,5/10/2020 14:18,2,0,,,,,0,
Alice,90000,5/10/2020 14:23,7,0,,,,,0,
Alice,1000,5/10/2020 17:50,2,0,,,,,0,
Alice,12000,7/10/2020 14:37,5,0,,,,,0,
Alice,4100,7/10/2020 17:33,5,0,,,,,0,
Alice,9000,7/10/2020 18:54,5,0,,,,,0,
Alice,3000,8/10/2020 18:36,5,0,,,,,0,
Alice,2000,8/10/2020 18:50,5,0,,,,,0,
Alice,20000,8/10/2020 19:09,5,0,,,,,0,
Alice,23000,9/10/2020 11:11,2,0,,,,,0,
Alice,10000,9/10/2020 12:17,2,0,,,,,0,
Alice,10500,9/10/2020 13:06,8,0,,,,,0,
Alice,50000,9/10/2020 16:47,8,0,,,,,0,
Alice,8000,9/10/2020 19:11,8,0,,,,,0,
Alice,8000,12/10/2020 13:26,2,1,1,wrong entry,1,12/10/2020 13:26,0,
Alice,2000,12/10/2020 13:44,8,0,,,,,0,
Alice,20000,13/10/2020 17:54:45,8,0,,,,,0,
Alice,1000,15/10/2020 12:53:59,5,0,,,,,0,
Alice,5500,15/10/2020 15:32:14,2,0,,,,,0,
Alice,3000,16/10/2020 17:22:36,5,0,,,,,0,
Alice,2500,16/10/2020 17:22:46,2,0,,,,,0,
Alice,1000,16/10/2020 17:41:22,2,0,,,,,0,
Alice,4000,17/10/2020 14:59:56,2,0,,,,,0,
Alice,4000,17/10/2020 15:30:08,2,0,,,,,0,
Alice,6500,19/10/2020 13:27:18,2,0,,,,,0,
Alice,5500,19/10/2020 16:35:52,2,0,,,,,0,
Alice,13000,19/10/2020 16:56:14,8,0,,,,,0,
Alice,2000,19/10/2020 17:59:03,8,0,,,,,0,
Alice,4000,19/10/2020 17:59:44,2,0,,,,,0,
Alice,5500,19/10/2020 18:01:31,2,0,,,,,0,
Alice,13000,21/10/2020 11:03:44,2,0,,,,,0,
Alice,12000,21/10/2020 14:02:17,2,0,,,,,0,
Alice,12000,21/10/2020 18:25:09,2,0,,,,,0,
Alice,5000,22/10/2020 12:12:42,2,0,,,,,0,
Alice,14000,23/10/2020 16:43:42,5,0,,,,,0,
Alice,10000,23/10/2020 17:18:20,8,0,,,,,0,
Alice,3000,23/10/2020 17:21:16,2,0,,,,,0,
Alice,5500,24/10/2020 13:10:52,8,0,,,,,0,
